[
  {
    "model": "recipes.fermentable",
    "fields": {
      "owner": 1,
      "public": true,
      "slug": "pilsner-malt",
      "requires_mashing": true,
      "type": "MALTGR",
      "lovibond_rating": 1.2,
      "name": "Pilsner Malt",
      "description": "Similar to lager malt, but usually produced using two-row barley"
    },
    "pk": 37
  },
  {
    "model": "recipes.fermentable",
    "fields": {
      "owner": 1,
      "public": true,
      "slug": "carapils",
      "requires_mashing": false,
      "type": "MALTGR",
      "lovibond_rating": 1.3,
      "name": "Carapils",
      "description": "Very light crystal malt; adds body and malt flavour, without adding colour"
    },
    "pk": 20
  },
  {
    "model": "recipes.fermentable",
    "fields": {
      "owner": 1,
      "public": true,
      "slug": "flaked-maize-corn",
      "requires_mashing": true,
      "type": "ADJUNCT",
      "lovibond_rating": 0,
      "name": "Flaked maize (corn)",
      "description": "Increases fermentable sugar level, while adding very little flavour or colour"
    },
    "pk": 26
  },
  {
    "model": "recipes.hop",
    "fields": {
      "owner": 1,
      "country_of_origin": "Germany",
      "public": true,
      "slug": "northern-brewer",
      "alpha_acid_high": 9,
      "name": "Northern Brewer",
      "alpha_acid_low": 5,
      "description": "Spicy, cedar, pine",
      "intensity": 6
    },
    "pk": 35
  },
  {
    "model": "recipes.hop",
    "fields": {
      "owner": 1,
      "country_of_origin": "USA",
      "public": true,
      "slug": "crystal",
      "alpha_acid_high": 6,
      "name": "Crystal",
      "alpha_acid_low": 2,
      "description": "Tangerine, citrus",
      "intensity": 6
    },
    "pk": 18
  },
  {
    "model": "recipes.other",
    "fields": {
      "name": "Protofloc",
      "slug": "protofloc",
      "public": true,
      "description": "Protofloc is a tabletised kettle fining agent that is added directly to the wort towards the end of the boil. The use of Protofloc leads to prolonged shelf-life, reduced haze and brighter worts that require less time to fine later on.",
      "owner": 1
    },
    "pk": 1
  },
  {
    "model": "recipes.lab",
    "fields": {
      "name": "Whitelabs"
    },
    "pk": 4
  },
  {
    "model": "recipes.style",
    "fields": {
      "name": "Light Lager",
      "co_volume": 2.5
    },
    "pk": 1
  },
  {
    "model": "recipes.yeast",
    "fields": {
      "owner": 1,
      "public": true,
      "slug": "940-mexican-lager",
      "style": [1],
      "alternatives": [],
      "name": "940 Mexican lager",
      "description": "",
      "lab": 4
    },
    "pk": 64
  },
  {
    "pk": 19,
    "fields": {
      "fermentation_temp": 12,
      "description": "Light, crisp and refreshing, this Mexican-style beer is sure to hit the spot on a hot summer's day. Serve with a wedge of lime for an authentic flavour.",
      "name": "Mexican Cerveza",
      "original_gravity": "1.046",
      "owner": 1,
      "cloned_from": null,
      "public": true,
      "slug": "mexican-cerveza",
      "conditioning_time_quantifier": "w",
      "style": 1,
      "conditioning_time": 4,
      "yeast": 64,
      "created_date": "2015-02-14T06:09:25.393Z",
      "last_updated_date": "2015-02-14T06:09:25.393Z",
      "conditioning_temp": 3,
      "expected_final_gravity": "1.012",
      "target_volume": 23
    },
    "model": "recipes.baserecipe"
  },
  {
    "pk": 19,
    "fields": {
      "boil_liquor": "27",
      "boil_time": 75
    },
    "model": "recipes.extractrecipe"
  },
  {
    "pk": 19,
    "fields": {
      "mash_time": 60,
      "mash_liquor": "11.5",
      "mash_temperature": 65
    },
    "model": "recipes.allgrainrecipe"
  },
  {
    "model": "recipes.recipegrain",
    "fields": {
      "quantity": "3.86",
      "recipe": 19,
      "fermentable": 37,
      "unit": "kg"
    },
    "pk": 23
  },
  {
    "model": "recipes.recipegrain",
    "fields": {
      "quantity": "270",
      "recipe": 19,
      "fermentable": 20,
      "unit": "g"
    },
    "pk": 24
  },
  {
    "model": "recipes.recipegrain",
    "fields": {
      "quantity": "450",
      "recipe": 19,
      "fermentable": 26,
      "unit": "g"
    },
    "pk": 25
  },
  {
    "model": "recipes.recipehop",
    "fields": {
      "ibu": "12.5",
      "quantity": 14,
      "when_to_add": 75,
      "recipe": 19,
      "hop": 35,
      "alpha_acid_rating": 8
    },
    "pk": 23
  },
  {
    "model": "recipes.recipehop",
    "fields": {
      "ibu": "7.1",
      "quantity": 18,
      "when_to_add": 60,
      "recipe": 19,
      "hop": 18,
      "alpha_acid_rating": 3.5
    },
    "pk": 24
  },
  {
    "model": "recipes.recipehop",
    "fields": {
      "ibu": "3.9",
      "quantity": 28,
      "when_to_add": 10,
      "recipe": 19,
      "hop": 18,
      "alpha_acid_rating": 3.5
    },
    "pk": 25
  },
  {
    "model": "recipes.recipeother",
    "fields": {
      "when_to_add": "For last 15 mins of boil",
      "quantity": 1,
      "other": 1,
      "recipe": 19,
      "unit": "tsp"
    },
    "pk": 6
  },
  {
    "model": "recipes.recipeprofile",
    "fields": {
      "user": 1,
      "mash_efficiency": 70,
      "grain_absorption": 1.1,
      "evaporation_rate": 2.1,
      "trub_loss": 1
    },
    "pk": 1
  },
  {
    "model": "recipes.baserecipe",
    "fields": {
      "owner": 1,
      "conditioning_time": 4,
      "original_gravity": 1.046,
      "slug": "test-recipe",
      "name": "Test Recipe",
      "description": "One malt and one hop addition",
      "conditioning_temp": 3,
      "yeast": 64,
      "public": true,
      "expected_final_gravity": 1.012,
      "created_date": "2014-09-29T07:43:52.297Z",
      "style": 1,
      "last_updated_date": "2014-11-05T12:10:16.600Z",
      "conditioning_time_quantifier": "w",
      "fermentation_temp": 12,
      "cloned_from": null,
      "target_volume": 23
    },
    "pk": 20
  },
  {
    "pk": 20,
    "fields": {
      "boil_liquor": "27",
      "boil_time": 75
    },
    "model": "recipes.extractrecipe"
  },
  {
    "pk": 20,
    "fields": {
      "mash_time": 60,
      "mash_liquor": "11.5",
      "mash_temperature": 65
    },
    "model": "recipes.allgrainrecipe"
  },
  {
    "model": "recipes.recipegrain",
    "fields": {
      "quantity": "3.86",
      "recipe": 20,
      "fermentable": 37,
      "unit": "kg"
    },
    "pk": 30
  },
  {
    "model": "recipes.recipehop",
    "fields": {
      "ibu": "3.9",
      "quantity": 28,
      "when_to_add": 10,
      "recipe": 20,
      "hop": 18,
      "alpha_acid_rating": 3.5
    },
    "pk": 30
  },
  {
    "model": "recipes.baserecipe",
    "fields": {
      "owner": 1,
      "conditioning_time": 4,
      "original_gravity": 1.046,
      "slug": "extract-recipe",
      "name": "Extract Recipe",
      "description": "One malt and one hop addition",
      "conditioning_temp": 3,
      "yeast": 64,
      "public": true,
      "expected_final_gravity": 1.012,
      "created_date": "2014-09-29T07:43:52.297Z",
      "style": 1,
      "last_updated_date": "2014-11-05T12:10:16.600Z",
      "conditioning_time_quantifier": "w",
      "fermentation_temp": 12,
      "cloned_from": null,
      "target_volume": 23
    },
    "pk": 21
  },
  {
    "pk": 21,
    "fields": {
      "boil_liquor": "27",
      "boil_time": 75
    },
    "model": "recipes.extractrecipe"
  },

  {
    "model": "recipes.recipegrain",
    "fields": {
      "quantity": "3.86",
      "recipe": 21,
      "fermentable": 37,
      "unit": "kg"
    },
    "pk": 31
  },
  {
    "model": "recipes.recipegrain",
    "fields": {
      "quantity": "200",
      "recipe": 21,
      "fermentable": 37,
      "unit": "g",
      "steeped": true
    },
    "pk": 32
  },
  {
    "model": "recipes.recipehop",
    "fields": {
      "ibu": "3.9",
      "quantity": 28,
      "when_to_add": 10,
      "recipe": 21,
      "hop": 18,
      "alpha_acid_rating": 3.5
    },
    "pk": 31
  },
  {
    "model": "recipes.baserecipe",
    "fields": {
      "owner": 1,
      "conditioning_time": 4,
      "original_gravity": 1.046,
      "slug": "base-recipe",
      "name": "Base Recipe",
      "description": "One malt and one hop addition",
      "conditioning_temp": 3,
      "yeast": 64,
      "public": true,
      "expected_final_gravity": 1.012,
      "created_date": "2014-09-29T07:43:52.297Z",
      "style": 1,
      "last_updated_date": "2014-11-05T12:10:16.600Z",
      "conditioning_time_quantifier": "w",
      "fermentation_temp": 12,
      "cloned_from": null,
      "target_volume": 23
    },
    "pk": 22
  },
  {
    "model": "recipes.recipegrain",
    "fields": {
      "quantity": "3.86",
      "recipe": 22,
      "fermentable": 37,
      "unit": "kg"
    },
    "pk": 33
  }
]