Django>=1.8,<1.9
logutils==0.3.3
pytz>=2015.4
django-bootstrap3==6.2.2
django-tables2==1.1.2
django-filter==0.11.0
django-admin-bootstrapped==2.5.4
django-uuslug==1.1.6
django-permissionsx==1.3.4
django-extra-views==0.7.1
django-allauth==0.23.0
django-bootstrap3-datetimepicker==2.2.3
django-taggit==0.17.0
django-sniplates==0.3.2
django-markdownx==1.3
celery==3.1.18